digraph "CuTest" {
  compound=true
  node [ fontsize="10", fontname="Helvetica"];
  edge [ labelfontsize="10", labelfontname="Helvetica"];
  dir_606de1e47da08b0d16e497ed74042ebe [shape=box, label="CuTest", style="filled", fillcolor="#eeeeff", pencolor="black", URL="dir_606de1e47da08b0d16e497ed74042ebe.html"];
  dir_b05a5fa85f84bfc9013183c9d87f9a36 [shape=box label="Utilities" URL="dir_b05a5fa85f84bfc9013183c9d87f9a36.html"];
  dir_606de1e47da08b0d16e497ed74042ebe->dir_b05a5fa85f84bfc9013183c9d87f9a36 [headlabel="2", labeldistance=1.5 headhref="dir_000000_000012.html"];
}
